{
   "photos":{
      "page":1,
      "pages":5049,
      "perpage":50,
      "total":"252421",
      "photo":[
         {
            "id":"20723764255",
            "owner":"8790317@N03",
            "secret":"2894e27ddf",
            "server":"746",
            "farm":1,
            "title":"Come to Leopolds in the next 45 minutes if you want an ass kicking cc @rcrowley",
            "ispublic":1,
            "isfriend":0,
            "isfamily":0,
            "url_m":"https:\/\/farm1.staticflickr.com\/746\/20723764255_2894e27ddf.jpg",
            "height_m":"375",
            "width_m":"500"
         },
         {
            "id":"20535711570",
            "owner":"74115126@N08",
            "secret":"0a44b8e74d",
            "server":"5626",
            "farm":6,
            "title":"2016 Ford GT under the lights",
            "ispublic":1,
            "isfriend":0,
            "isfamily":0,
            "url_m":"https:\/\/farm6.staticflickr.com\/5626\/20535711570_0a44b8e74d.jpg",
            "height_m":"333",
            "width_m":"500"
         },
         {
            "id":"20100923874",
            "owner":"85055524@N00",
            "secret":"4716ee6ca1",
            "server":"5650",
            "farm":6,
            "title":"Checking out the progress of the coming Atrium Theater at the @sfopera Wilsey Center.",
            "ispublic":1,
            "isfriend":0,
            "isfamily":0,
            "url_m":"https:\/\/farm6.staticflickr.com\/5650\/20100923874_4716ee6ca1.jpg",
            "height_m":"500",
            "width_m":"500"
         },
         {
            "id":"20536748979",
            "owner":"126474483@N03",
            "secret":"fc208cfca8",
            "server":"5815",
            "farm":6,
            "title":"104\/365 #1fotoadaykeepsdocaway",
            "ispublic":1,
            "isfriend":0,
            "isfamily":0,
            "url_m":"https:\/\/farm6.staticflickr.com\/5815\/20536748979_fc208cfca8.jpg",
            "height_m":"500",
            "width_m":"500"
         },
         {
            "id":"20102513193",
            "owner":"7753444@N07",
            "secret":"c33bf674a2",
            "server":"750",
            "farm":1,
            "title":"Capturing Moments",
            "ispublic":1,
            "isfriend":0,
            "isfamily":0,
            "url_m":"https:\/\/farm1.staticflickr.com\/750\/20102513193_c33bf674a2.jpg",
            "height_m":"333",
            "width_m":"500"
         },
         {
            "id":"20535398818",
            "owner":"24783612@N08",
            "secret":"435a0baf2d",
            "server":"578",
            "farm":1,
            "title":"_IGP1733",
            "ispublic":1,
            "isfriend":0,
            "isfamily":0,
            "url_m":"https:\/\/farm1.staticflickr.com\/578\/20535398818_435a0baf2d.jpg",
            "height_m":"500",
            "width_m":"331"
         },
         {
            "id":"20535374180",
            "owner":"24783612@N08",
            "secret":"104df4609c",
            "server":"761",
            "farm":1,
            "title":"IMGP0428",
            "ispublic":1,
            "isfriend":0,
            "isfamily":0,
            "url_m":"https:\/\/farm1.staticflickr.com\/761\/20535374180_104df4609c.jpg",
            "height_m":"500",
            "width_m":"375"
         },
         {
            "id":"20102444313",
            "owner":"49719591@N08",
            "secret":"caca9eec2b",
            "server":"5711",
            "farm":6,
            "title":"Barn Swallows",
            "ispublic":1,
            "isfriend":0,
            "isfamily":0,
            "url_m":"https:\/\/farm6.staticflickr.com\/5711\/20102444313_caca9eec2b.jpg",
            "height_m":"385",
            "width_m":"500"
         },
         {
            "id":"20535258240",
            "owner":"47263550@N06",
            "secret":"3f68aa0186",
            "server":"5727",
            "farm":6,
            "title":"Escalera con personas muy queridas y apreciadas en #IDF15",
            "ispublic":1,
            "isfriend":0,
            "isfamily":0,
            "url_m":"https:\/\/farm6.staticflickr.com\/5727\/20535258240_3f68aa0186.jpg",
            "height_m":"500",
            "width_m":"500"
         },
         {
            "id":"20729968161",
            "owner":"10339145@N08",
            "secret":"c00f524a6c",
            "server":"712",
            "farm":1,
            "title":"",
            "ispublic":1,
            "isfriend":0,
            "isfamily":0,
            "url_m":"https:\/\/farm1.staticflickr.com\/712\/20729968161_c00f524a6c.jpg",
            "height_m":"375",
            "width_m":"500"
         },
         {
            "id":"20100536034",
            "owner":"10339145@N08",
            "secret":"2362f1dcce",
            "server":"5674",
            "farm":6,
            "title":"",
            "ispublic":1,
            "isfriend":0,
            "isfamily":0,
            "url_m":"https:\/\/farm6.staticflickr.com\/5674\/20100536034_2362f1dcce.jpg",
            "height_m":"500",
            "width_m":"375"
         },
         {
            "id":"20102153803",
            "owner":"47263550@N06",
            "secret":"a9884094bd",
            "server":"614",
            "farm":1,
            "title":"Fiesta del #IDF15 con #TheFray",
            "ispublic":1,
            "isfriend":0,
            "isfamily":0,
            "url_m":"https:\/\/farm1.staticflickr.com\/614\/20102153803_a9884094bd.jpg",
            "height_m":"500",
            "width_m":"500"
         },
         {
            "id":"20729726101",
            "owner":"94599716@N06",
            "secret":"21ec8d7f93",
            "server":"633",
            "farm":1,
            "title":"Merging",
            "ispublic":1,
            "isfriend":0,
            "isfamily":0,
            "url_m":"https:\/\/farm1.staticflickr.com\/633\/20729726101_21ec8d7f93.jpg",
            "height_m":"500",
            "width_m":"500"
         },
         {
            "id":"20101922263",
            "owner":"94599716@N06",
            "secret":"2d8889eafc",
            "server":"684",
            "farm":1,
            "title":"Pots and Pans",
            "ispublic":1,
            "isfriend":0,
            "isfamily":0,
            "url_m":"https:\/\/farm1.staticflickr.com\/684\/20101922263_2d8889eafc.jpg",
            "height_m":"500",
            "width_m":"500"
         },
         {
            "id":"20713568732",
            "owner":"94599716@N06",
            "secret":"0c982ea342",
            "server":"587",
            "farm":1,
            "title":"Lacie",
            "ispublic":1,
            "isfriend":0,
            "isfamily":0,
            "url_m":"https:\/\/farm1.staticflickr.com\/587\/20713568732_0c982ea342.jpg",
            "height_m":"500",
            "width_m":"500"
         },
         {
            "id":"20101921283",
            "owner":"94599716@N06",
            "secret":"e38a76f26b",
            "server":"5750",
            "farm":6,
            "title":"Lip Balm",
            "ispublic":1,
            "isfriend":0,
            "isfamily":0,
            "url_m":"https:\/\/farm6.staticflickr.com\/5750\/20101921283_e38a76f26b.jpg",
            "height_m":"500",
            "width_m":"500"
         },
         {
            "id":"20101920833",
            "owner":"94599716@N06",
            "secret":"7dd4924565",
            "server":"753",
            "farm":1,
            "title":"Keyboard",
            "ispublic":1,
            "isfriend":0,
            "isfamily":0,
            "url_m":"https:\/\/farm1.staticflickr.com\/753\/20101920833_7dd4924565.jpg",
            "height_m":"500",
            "width_m":"500"
         },
         {
            "id":"20696626296",
            "owner":"94599716@N06",
            "secret":"fcc725293d",
            "server":"5835",
            "farm":6,
            "title":"PwC Office",
            "ispublic":1,
            "isfriend":0,
            "isfamily":0,
            "url_m":"https:\/\/farm6.staticflickr.com\/5835\/20696626296_fcc725293d.jpg",
            "height_m":"500",
            "width_m":"500"
         },
         {
            "id":"20729722501",
            "owner":"94599716@N06",
            "secret":"719af7be2d",
            "server":"769",
            "farm":1,
            "title":"Broccoli",
            "ispublic":1,
            "isfriend":0,
            "isfamily":0,
            "url_m":"https:\/\/farm1.staticflickr.com\/769\/20729722501_719af7be2d.jpg",
            "height_m":"500",
            "width_m":"500"
         },
         {
            "id":"20534866540",
            "owner":"94599716@N06",
            "secret":"5944c879e3",
            "server":"574",
            "farm":1,
            "title":"Combination Lock",
            "ispublic":1,
            "isfriend":0,
            "isfamily":0,
            "url_m":"https:\/\/farm1.staticflickr.com\/574\/20534866540_5944c879e3.jpg",
            "height_m":"500",
            "width_m":"500"
         },
         {
            "id":"20536031499",
            "owner":"19159227@N06",
            "secret":"d3f43cfe52",
            "server":"5688",
            "farm":6,
            "title":"North Beach - 081615 - 01 - North Beach Joe DiMaggio Playground Renovation Progress",
            "ispublic":1,
            "isfriend":0,
            "isfamily":0,
            "url_m":"https:\/\/farm6.staticflickr.com\/5688\/20536031499_d3f43cfe52.jpg",
            "height_m":"333",
            "width_m":"500"
         },
         {
            "id":"20713479052",
            "owner":"19159227@N06",
            "secret":"71a506d8c2",
            "server":"5739",
            "farm":6,
            "title":"North Beach - 081615 - 02 - North Beach Joe DiMaggio Playground Renovation Progress",
            "ispublic":1,
            "isfriend":0,
            "isfamily":0,
            "url_m":"https:\/\/farm6.staticflickr.com\/5739\/20713479052_71a506d8c2.jpg",
            "height_m":"333",
            "width_m":"500"
         },
         {
            "id":"20722775875",
            "owner":"19159227@N06",
            "secret":"8a5f35066c",
            "server":"5704",
            "farm":6,
            "title":"North Beach - 081615 - 03 - North Beach Joe DiMaggio Playground Renovation Progress",
            "ispublic":1,
            "isfriend":0,
            "isfamily":0,
            "url_m":"https:\/\/farm6.staticflickr.com\/5704\/20722775875_8a5f35066c.jpg",
            "height_m":"333",
            "width_m":"500"
         },
         {
            "id":"20100200714",
            "owner":"19159227@N06",
            "secret":"d37b42f0c2",
            "server":"5647",
            "farm":6,
            "title":"North Beach - 081615 - 04 - North Beach Joe DiMaggio Playground Renovation Progress",
            "ispublic":1,
            "isfriend":0,
            "isfamily":0,
            "url_m":"https:\/\/farm6.staticflickr.com\/5647\/20100200714_d37b42f0c2.jpg",
            "height_m":"333",
            "width_m":"500"
         },
         {
            "id":"20696530076",
            "owner":"19159227@N06",
            "secret":"a171f0e3be",
            "server":"5670",
            "farm":6,
            "title":"North Beach - 081515 - 01 - North Beach Joe DiMaggio Playground Renovation Progress",
            "ispublic":1,
            "isfriend":0,
            "isfamily":0,
            "url_m":"https:\/\/farm6.staticflickr.com\/5670\/20696530076_a171f0e3be.jpg",
            "height_m":"281",
            "width_m":"500"
         },
         {
            "id":"20101824003",
            "owner":"19159227@N06",
            "secret":"da3c4cf2c1",
            "server":"744",
            "farm":1,
            "title":"North Beach - 081515 - 03 - North Beach Joe DiMaggio Playground Renovation Progress",
            "ispublic":1,
            "isfriend":0,
            "isfamily":0,
            "url_m":"https:\/\/farm1.staticflickr.com\/744\/20101824003_da3c4cf2c1.jpg",
            "height_m":"500",
            "width_m":"333"
         },
         {
            "id":"20534770710",
            "owner":"19159227@N06",
            "secret":"a148e80f70",
            "server":"684",
            "farm":1,
            "title":"North Beach - 081515 - 02 - North Beach Branch Library",
            "ispublic":1,
            "isfriend":0,
            "isfamily":0,
            "url_m":"https:\/\/farm1.staticflickr.com\/684\/20534770710_a148e80f70.jpg",
            "height_m":"333",
            "width_m":"500"
         },
         {
            "id":"20534792878",
            "owner":"19159227@N06",
            "secret":"1f9d9d83c1",
            "server":"684",
            "farm":1,
            "title":"North Beach - 081515 - 04 - Saints Peter and Paul Church Recreation Building and Gymnasium Reconstruction",
            "ispublic":1,
            "isfriend":0,
            "isfamily":0,
            "url_m":"https:\/\/farm1.staticflickr.com\/684\/20534792878_1f9d9d83c1.jpg",
            "height_m":"333",
            "width_m":"500"
         },
         {
            "id":"20100025854",
            "owner":"47713580@N07",
            "secret":"c7ddd4e122",
            "server":"776",
            "farm":1,
            "title":"IMG_3174",
            "ispublic":1,
            "isfriend":0,
            "isfamily":0,
            "url_m":"https:\/\/farm1.staticflickr.com\/776\/20100025854_c7ddd4e122.jpg",
            "height_m":"281",
            "width_m":"500"
         },
         {
            "id":"20722599305",
            "owner":"47713580@N07",
            "secret":"bf1d86e2a4",
            "server":"695",
            "farm":1,
            "title":"IMG_3175",
            "ispublic":1,
            "isfriend":0,
            "isfamily":0,
            "url_m":"https:\/\/farm1.staticflickr.com\/695\/20722599305_bf1d86e2a4.jpg",
            "height_m":"281",
            "width_m":"500"
         },
         {
            "id":"20722597595",
            "owner":"47713580@N07",
            "secret":"bce3c44bc1",
            "server":"662",
            "farm":1,
            "title":"IMG_3176",
            "ispublic":1,
            "isfriend":0,
            "isfamily":0,
            "url_m":"https:\/\/farm1.staticflickr.com\/662\/20722597595_bce3c44bc1.jpg",
            "height_m":"500",
            "width_m":"281"
         },
         {
            "id":"20534618908",
            "owner":"47713580@N07",
            "secret":"bc53cb42ed",
            "server":"5823",
            "farm":6,
            "title":"IMG_3177",
            "ispublic":1,
            "isfriend":0,
            "isfamily":0,
            "url_m":"https:\/\/farm6.staticflickr.com\/5823\/20534618908_bc53cb42ed.jpg",
            "height_m":"281",
            "width_m":"500"
         },
         {
            "id":"20101648813",
            "owner":"47713580@N07",
            "secret":"0475e18c07",
            "server":"713",
            "farm":1,
            "title":"IMG_3179",
            "ispublic":1,
            "isfriend":0,
            "isfamily":0,
            "url_m":"https:\/\/farm1.staticflickr.com\/713\/20101648813_0475e18c07.jpg",
            "height_m":"281",
            "width_m":"500"
         },
         {
            "id":"20534614088",
            "owner":"47713580@N07",
            "secret":"e6895b0542",
            "server":"5756",
            "farm":6,
            "title":"IMG_3180",
            "ispublic":1,
            "isfriend":0,
            "isfamily":0,
            "url_m":"https:\/\/farm6.staticflickr.com\/5756\/20534614088_e6895b0542.jpg",
            "height_m":"281",
            "width_m":"500"
         },
         {
            "id":"20713290512",
            "owner":"47713580@N07",
            "secret":"76e9d7f012",
            "server":"677",
            "farm":1,
            "title":"IMG_3182",
            "ispublic":1,
            "isfriend":0,
            "isfamily":0,
            "url_m":"https:\/\/farm1.staticflickr.com\/677\/20713290512_76e9d7f012.jpg",
            "height_m":"281",
            "width_m":"500"
         },
         {
            "id":"20100008804",
            "owner":"47713580@N07",
            "secret":"68ff28d79d",
            "server":"5806",
            "farm":6,
            "title":"IMG_3183",
            "ispublic":1,
            "isfriend":0,
            "isfamily":0,
            "url_m":"https:\/\/farm6.staticflickr.com\/5806\/20100008804_68ff28d79d.jpg",
            "height_m":"281",
            "width_m":"500"
         },
         {
            "id":"20100007204",
            "owner":"47713580@N07",
            "secret":"be249c90b1",
            "server":"724",
            "farm":1,
            "title":"IMG_3184",
            "ispublic":1,
            "isfriend":0,
            "isfamily":0,
            "url_m":"https:\/\/farm1.staticflickr.com\/724\/20100007204_be249c90b1.jpg",
            "height_m":"281",
            "width_m":"500"
         },
         {
            "id":"20100005304",
            "owner":"47713580@N07",
            "secret":"1b586e6a13",
            "server":"5799",
            "farm":6,
            "title":"IMG_3185",
            "ispublic":1,
            "isfriend":0,
            "isfamily":0,
            "url_m":"https:\/\/farm6.staticflickr.com\/5799\/20100005304_1b586e6a13.jpg",
            "height_m":"281",
            "width_m":"500"
         },
         {
            "id":"20696342426",
            "owner":"47713580@N07",
            "secret":"72a6aa05aa",
            "server":"5778",
            "farm":6,
            "title":"IMG_3186",
            "ispublic":1,
            "isfriend":0,
            "isfamily":0,
            "url_m":"https:\/\/farm6.staticflickr.com\/5778\/20696342426_72a6aa05aa.jpg",
            "height_m":"281",
            "width_m":"500"
         },
         {
            "id":"20535831849",
            "owner":"47713580@N07",
            "secret":"0a9839f73c",
            "server":"5781",
            "farm":6,
            "title":"IMG_3187",
            "ispublic":1,
            "isfriend":0,
            "isfamily":0,
            "url_m":"https:\/\/farm6.staticflickr.com\/5781\/20535831849_0a9839f73c.jpg",
            "height_m":"281",
            "width_m":"500"
         },
         {
            "id":"20722572235",
            "owner":"47713580@N07",
            "secret":"bf0dabcef7",
            "server":"749",
            "farm":1,
            "title":"IMG_3189",
            "ispublic":1,
            "isfriend":0,
            "isfamily":0,
            "url_m":"https:\/\/farm1.staticflickr.com\/749\/20722572235_bf0dabcef7.jpg",
            "height_m":"281",
            "width_m":"500"
         },
         {
            "id":"20535825289",
            "owner":"47713580@N07",
            "secret":"b98c5ec5f7",
            "server":"682",
            "farm":1,
            "title":"IMG_3190",
            "ispublic":1,
            "isfriend":0,
            "isfamily":0,
            "url_m":"https:\/\/farm1.staticflickr.com\/682\/20535825289_b98c5ec5f7.jpg",
            "height_m":"281",
            "width_m":"500"
         },
         {
            "id":"20722567605",
            "owner":"47713580@N07",
            "secret":"ab56af786e",
            "server":"5780",
            "farm":6,
            "title":"IMG_3191",
            "ispublic":1,
            "isfriend":0,
            "isfamily":0,
            "url_m":"https:\/\/farm6.staticflickr.com\/5780\/20722567605_ab56af786e.jpg",
            "height_m":"281",
            "width_m":"500"
         },
         {
            "id":"20099988594",
            "owner":"47713580@N07",
            "secret":"a0a94ed5ab",
            "server":"591",
            "farm":1,
            "title":"IMG_3192",
            "ispublic":1,
            "isfriend":0,
            "isfamily":0,
            "url_m":"https:\/\/farm1.staticflickr.com\/591\/20099988594_a0a94ed5ab.jpg",
            "height_m":"281",
            "width_m":"500"
         },
         {
            "id":"20099985964",
            "owner":"47713580@N07",
            "secret":"81d77af727",
            "server":"5744",
            "farm":6,
            "title":"IMG_3193",
            "ispublic":1,
            "isfriend":0,
            "isfamily":0,
            "url_m":"https:\/\/farm6.staticflickr.com\/5744\/20099985964_81d77af727.jpg",
            "height_m":"281",
            "width_m":"500"
         },
         {
            "id":"20534583428",
            "owner":"47713580@N07",
            "secret":"dee446f8f0",
            "server":"655",
            "farm":1,
            "title":"IMG_3194",
            "ispublic":1,
            "isfriend":0,
            "isfamily":0,
            "url_m":"https:\/\/farm1.staticflickr.com\/655\/20534583428_dee446f8f0.jpg",
            "height_m":"281",
            "width_m":"500"
         },
         {
            "id":"20729417001",
            "owner":"47713580@N07",
            "secret":"37aee25e72",
            "server":"5758",
            "farm":6,
            "title":"IMG_3195",
            "ispublic":1,
            "isfriend":0,
            "isfamily":0,
            "url_m":"https:\/\/farm6.staticflickr.com\/5758\/20729417001_37aee25e72.jpg",
            "height_m":"281",
            "width_m":"500"
         },
         {
            "id":"20534578928",
            "owner":"47713580@N07",
            "secret":"faa408f2ec",
            "server":"684",
            "farm":1,
            "title":"IMG_3196",
            "ispublic":1,
            "isfriend":0,
            "isfamily":0,
            "url_m":"https:\/\/farm1.staticflickr.com\/684\/20534578928_faa408f2ec.jpg",
            "height_m":"281",
            "width_m":"500"
         },
         {
            "id":"20713255382",
            "owner":"47713580@N07",
            "secret":"57ddabf66e",
            "server":"703",
            "farm":1,
            "title":"IMG_3197",
            "ispublic":1,
            "isfriend":0,
            "isfamily":0,
            "url_m":"https:\/\/farm1.staticflickr.com\/703\/20713255382_57ddabf66e.jpg",
            "height_m":"281",
            "width_m":"500"
         },
         {
            "id":"20534553130",
            "owner":"47713580@N07",
            "secret":"9a4b717002",
            "server":"5683",
            "farm":6,
            "title":"IMG_3198",
            "ispublic":1,
            "isfriend":0,
            "isfamily":0,
            "url_m":"https:\/\/farm6.staticflickr.com\/5683\/20534553130_9a4b717002.jpg",
            "height_m":"281",
            "width_m":"500"
         }
      ]
   },
   "stat":"ok"
}